// Jest Snapshot v1, https://goo.gl/fbAQLP

exports[`parsons puzzle actions should create init blocks action 1`] = `
Object {
  "payload": Object {
    "blocks": Array [
      Object {
        "link": 1,
      },
      Object {
        "lock": true,
      },
      Object {
        "hide": true,
      },
    ],
  },
  "type": "openpatch.format.parson-puzzle.INIT_BLOCKS",
}
`;

exports[`parsons puzzle actions should create moveFromSourceToUser action 1`] = `
Object {
  "payload": Object {
    "indentation": undefined,
    "sourceId": Object {
      "indentation": 1,
      "sourceId": 1,
      "targetId": 0,
    },
    "targetId": undefined,
  },
  "type": "openpatch.format.parson-puzzle.MOVE_FROM_SOURCE_TO_USER",
}
`;

exports[`parsons puzzle actions should create moveFromUserToSource action 1`] = `
Object {
  "payload": Object {
    "sourceId": Object {
      "sourceId": 1,
      "targetId": 0,
    },
    "targetId": undefined,
  },
  "type": "openpatch.format.parson-puzzle.MOVE_FROM_USER_TO_SOURCE",
}
`;

exports[`parsons puzzle actions should create moveWithinSource action 1`] = `
Object {
  "payload": Object {
    "sourceId": Object {
      "sourceId": 1,
      "targetId": 0,
    },
    "targetId": undefined,
  },
  "type": "openpatch.format.parson-puzzle.MOVE_WITHIN_SOURCE",
}
`;

exports[`parsons puzzle actions should create moveWithinUser action 1`] = `
Object {
  "payload": Object {
    "indentation": undefined,
    "sourceId": Object {
      "indentation": 1,
      "sourceId": 1,
      "targetId": 0,
    },
    "targetId": undefined,
  },
  "type": "openpatch.format.parson-puzzle.MOVE_WITHIN_USER",
}
`;
